{
  "name": "Partenaire",
  "fields": [
    {
      "fieldName": "societe",
      "fieldType": "String",
      "fieldValidateRules": [
        "required"
      ]
    },
    {
      "fieldName": "domaine",
      "fieldType": "String",
      "fieldValidateRules": [
        "required"
      ]
    },
    {
      "fieldName": "email",
      "fieldType": "String",
      "fieldValidateRules": [
        "pattern"
      ],
      "fieldValidateRulesPattern": "^[a-z0-9._%+-]+@[a-z0-9.-]+\\.[a-z]{2,4}$"
    },
    {
      "fieldName": "telephone",
      "fieldType": "Integer",
      "fieldValidateRules": [
        "required"
      ]
    },
    {
      "fieldName": "pays",
      "fieldType": "String",
      "fieldValidateRules": [
        "required"
      ]
    },
    {
      "fieldName": "fax",
      "fieldType": "Integer"
    },
    {
      "fieldName": "adresse",
      "fieldType": "String",
      "fieldValidateRules": [
        "required"
      ]
    }
  ],
  "relationships": [
    {
      "relationshipType": "many-to-many",
      "otherEntityName": "accord",
      "otherEntityRelationshipName": "partenaire",
      "relationshipName": "accord",
      "otherEntityField": "id",
      "ownerSide": true
    }
  ],
  "changelogDate": "20201118123321",
  "entityTableName": "partenaire",
  "dto": "no",
  "pagination": "no",
  "service": "no",
  "jpaMetamodelFiltering": false,
  "fluentMethods": true,
  "readOnly": false,
  "embedded": false,
  "clientRootFolder": "",
  "applications": "*"
}
